{
    "joints": {
        "id": "Neck",
        "in": [
            0.1644287109375,
            1.282147268408551
        ],
        "out": [
            [
                0.5373338268649194,
                1.282147268408551
            ],
            "ANY",
            [
                1.0872802734375,
                1.282147268408551
            ],
            "ANY",
            [
                1.5936161164314515,
                1.282147268408551
            ],
            "ANY"
        ],
        "texture": ""
    },
    "textures": []
}