{
    "joints": {
        "id": "Neck",
        "in": [
            -2.144434,
            3.69568
        ],
        "out": [
            [
                -0.294824,
                3.69568,
                "ANY"
            ],
            [
                2.43291,
                3.69568,
                "ANY"
            ],
            [
                4.944336,
                3.69568,
                "ANY"
            ]
        ],
        "texture": 39
    },
    "textures": [
        {
            "component": "Torso",
            "id": 39
        }
    ]
}