{
    "joints": {
        "id": "OUT",
        "in": [
            0.5117277092889908,
            0.21426086956521728
        ],
        "out": [
            [
                0.46633099197247707,
                0.6780289855072462
            ],
            "ANY",
            [
                0.8307500716743119,
                0.3012173913043477
            ],
            "ANY",
            [
                0.2291786123853211,
                0.14179710144927524
            ],
            "ANY"
        ],
        "texture": 24
    },
    "textures": [
        {
            "component": "Pelvis",
            "id": 24
        }
    ]
}