{
    "joints": {
        "id": "Neck",
        "in": [
            -0.844434,
            3.11568
        ],
        "out": [
            [
                1.005176,
                3.11568,
                "ANY"
            ],
            [
                3.73291,
                3.11568,
                "ANY"
            ],
            [
                6.244336,
                3.11568,
                "ANY"
            ]
        ],
        "texture": ""
    },
    "textures": []
}