{
    "joints": {
        "components": [
            {
                "components": [
                    {
                        "id": "Foot",
                        "in": [
                            0.69482,
                            1.277397
                        ],
                        "out": [
                            [
                                1.083555,
                                1.277397,
                                "ANY"
                            ]
                        ],
                        "texture": 97
                    }
                ],
                "id": "Lower Leg",
                "in": [
                    0.580696,
                    1.267895
                ],
                "out": [
                    [
                        0.964982,
                        1.267895,
                        "ANY"
                    ]
                ],
                "texture": 96
            }
        ],
        "id": "Upper Leg",
        "in": [
            0.285396,
            1.267895
        ],
        "out": [
            [
                0.830696,
                1.267895,
                "ANY"
            ]
        ],
        "texture": 95
    },
    "textures": [
        {
            "component": "Upper Leg",
            "id": 95
        },
        {
            "component": "Lower Leg",
            "id": 96
        },
        {
            "component": "Foot",
            "id": 97
        }
    ]
}