{
    "joints": {
        "id": "Neck",
        "in": [
            -1.944434,
            2.95568
        ],
        "out": [
            [
                -0.094824,
                2.95568,
                "ANY"
            ],
            [
                2.63291,
                2.95568,
                "ANY"
            ],
            [
                5.144336,
                2.95568,
                "ANY"
            ]
        ],
        "texture": ""
    },
    "textures": []
}