{
    "joints": {
        "id": "Neck",
        "in": [
            0.519455,
            0.04185
        ],
        "out": [
            [
                0.480612,
                0.926225,
                "ANY"
            ],
            [
                0.087808,
                0.782475,
                "ANY"
            ],
            [
                0.955265,
                0.671538,
                "ANY"
            ]
        ],
        "texture": 48
    },
    "textures": [
        {
            "component": "Torso",
            "id": 48
        }
    ]
}