{
    "joints": {
        "id": "Neck",
        "in": [
            -0.624434,
            3.19568
        ],
        "out": [
            [
                1.225176,
                3.19568,
                "ANY"
            ],
            [
                3.95291,
                3.19568,
                "ANY"
            ],
            [
                6.464336,
                3.19568,
                "ANY"
            ]
        ],
        "texture": ""
    },
    "textures": []
}