{
    "joints": {
        "id": "Neck",
        "in": [
            0.655566,
            3.13568
        ],
        "out": [
            [
                2.505176,
                3.13568,
                "ANY"
            ],
            [
                5.23291,
                3.13568,
                "ANY"
            ],
            [
                7.744336,
                3.13568,
                "ANY"
            ]
        ],
        "texture": ""
    },
    "textures": []
}