{
    "joints": {
        "id": "OUT",
        "in": [
            -0.842217,
            2.38784
        ],
        "out": [
            [
                0.116084,
                2.38784,
                "ANY"
            ],
            [
                1.485518,
                2.38784,
                "ANY"
            ],
            [
                2.629805,
                2.38784,
                "ANY"
            ]
        ],
        "texture": 61
    },
    "textures": [
        {
            "component": "Pelvis",
            "id": 61
        }
    ]
}